RemoteRepoName,LocalRepoName,RemoteRepoURL,TargetDirectory
vs.ide,ide,https://git@bitbucket.org/davidhary/vs.ide.git,libraries\vs\core
dn.logging,logging,https://git@bitbucket.org/davidhary/dn.logging.git,lib\vs\core
dn.json,json,https://git@bitbucket.org/davidhary/dn.json.git,lib\vs\core
dn.tracing,tracing,https://git@bitbucket.org/davidhary/dn.tracing.git,lib\vs\core
