CommitID,LocalRepoName,TargetDirectory
844081f3847d3bfbce57e69d4b7675b0367cde1b,ide,libraries\vs\core
4694d2f5d8f66768934b200dfad6bca19bd89067,logging,lib\vs\core
78c606b5f80c46bf756ff27d897142c631790237,json,lib\vs\core
5d2a6738b3be341e8bce36e01ef5653c653e541b,tracing,lib\vs\core
